hw2
…
compact <- mpg[mpg$class == "compact", ]
compact

## # A tibble: 47 x 11
##    manufacturer model displ  year   cyl trans drv     cty   hwy fl    class
##    <chr>        <chr> <dbl> <int> <int> <chr> <chr> <int> <int> <chr> <chr>
##  1 audi         a4      1.8  1999     4 auto f        18    29 p     comp
##  2 audi         a4      1.8  1999     4 manu f        21    29 p     comp
##  3 audi         a4      2    2008     4 manu f        20    31 p     comp
##  4 audi         a4      2    2008     4 auto f        21    30 p     comp
##  5 audi         a4      2.8  1999     6 auto f        16    26 p     comp
##  6 audi         a4      2.8  1999     6 manu f        18    26 p     comp
##  7 audi         a4      3.1  2008     6 auto f        18    27 p     comp
##  8 audi         a4 q   1.8  1999     4 manu 4        18    26 p     comp
##  9 audi         a4 q   1.8  1999     4 auto 4        16    25 p     comp
## 10 audi         a4 q   2    2008     4 manu 4        20    28 p     comp
## #  with 37 more rows
…
Are cars in 2008 more fuel efficient than cars in 1999? Use graphs and summary statistics to answer this question.

y1999 <- mpg[mpg$year==1999,] #creates df of just 1999
y1999

## # A tibble: 117 x 11
##    manufacturer model displ  year   cyl trans drv     cty   hwy fl    class
##    <chr>        <chr> <dbl> <int> <int> <chr> <chr> <int> <int> <chr> <chr>
##  1 audi         a4      1.8  1999     4 auto f        18    29 p     comp
##  2 audi         a4      1.8  1999     4 manu f        21    29 p     comp
##  3 audi         a4      2.8  1999     6 auto f        16    26 p     comp
##  4 audi         a4      2.8  1999     6 manu f        18    26 p     comp
##  5 audi         a4 q   1.8  1999     4 manu 4        18    26 p     comp
##  6 audi         a4 q   1.8  1999     4 auto 4        16    25 p     comp
##  7 audi         a4 q   2.8  1999     6 auto 4        15    25 p     comp
##  8 audi         a4 q   2.8  1999     6 manu 4        17    25 p     comp
##  9 audi         a6 q   2.8  1999     6 auto 4        15    24 p     mids
## 10 chevrolet    c150   5.7  1999     8 auto r        13    17 r     suv  
## #  with 107 more rows

y2008 <- mpg[mpg$year==2008,] #creates df of just 2008
y2008

## # A tibble: 117 x 11
##    manufacturer model displ  year   cyl trans drv     cty   hwy fl    class
##    <chr>        <chr> <dbl> <int> <int> <chr> <chr> <int> <int> <chr> <chr>
##  1 audi         a4      2    2008     4 manu f        20    31 p     comp
##  2 audi         a4      2    2008     4 auto f        21    30 p     comp
##  3 audi         a4      3.1  2008     6 auto f        18    27 p     comp
##  4 audi         a4 q   2    2008     4 manu 4        20    28 p     comp
##  5 audi         a4 q   2    2008     4 auto 4        19    27 p     comp
##  6 audi         a4 q   3.1  2008     6 auto 4        17    25 p     comp
##  7 audi         a4 q   3.1  2008     6 manu 4        15    25 p     comp
##  8 audi         a6 q   3.1  2008     6 auto 4        17    25 p     mids
##  9 audi         a6 q   4.2  2008     8 auto 4        16    23 p     mids
## 10 chevrolet    c150   5.3  2008     8 auto r        14    20 r     suv  
## #  with 107 more rows
…
